Homework_7
…
## # A tibble: 6 × 3
##   Species Measure      Value
##   <fct>   <chr>        <dbl>
## 1 setosa  Sepal.Length   5.1
## 2 setosa  Sepal.Width    3.5
## 3 setosa  Petal.Length   1.4
## 4 setosa  Petal.Width    0.2
## 5 setosa  Sepal.Length   4.9
## 6 setosa  Sepal.Width    3

# check out the entire dataframe
print(iris_longer)

## # A tibble: 600 × 3
##    Species Measure      Value
##    <fct>   <chr>        <dbl>
##  1 setosa  Sepal.Length   5.1
##  2 setosa  Sepal.Width    3.5
##  3 setosa  Petal.Length   1.4
##  4 setosa  Petal.Width    0.2
##  5 setosa  Sepal.Length   4.9
##  6 setosa  Sepal.Width    3  
##  7 setosa  Petal.Length   1.4
##  8 setosa  Petal.Width    0.2
##  9 setosa  Sepal.Length   4.7
## 10 setosa  Sepal.Width    3.2
## # ℹ 590 more rows
